<?xml version="1.0" encoding="UTF-8" standalone="no"?>
<svg
   xmlns:dc="http://purl.org/dc/elements/1.1/"
   xmlns:cc="http://creativecommons.org/ns#"
   xmlns:rdf="http://www.w3.org/1999/02/22-rdf-syntax-ns#"
   xmlns:svg="http://www.w3.org/2000/svg"
   xmlns="http://www.w3.org/2000/svg"
   xmlns:sodipodi="http://sodipodi.sourceforge.net/DTD/sodipodi-0.dtd"
   xmlns:inkscape="http://www.inkscape.org/namespaces/inkscape"
   id="svg8"
   version="1.1"
   viewBox="0 0 300.62918 79.999999"
   height="88.888885mm"
   width="334.03241mm"
   sodipodi:docname="logo.svg"
   inkscape:version="0.92.2 (unknown)">
  <sodipodi:namedview
     pagecolor="#434343"
     bordercolor="#666666"
     borderopacity="1"
     objecttolerance="10"
     gridtolerance="10"
     guidetolerance="10"
     inkscape:pageopacity="0"
     inkscape:pageshadow="2"
     inkscape:window-width="1366"
     inkscape:window-height="702"
     id="namedview865"
     showgrid="false"
     inkscape:pagecheckerboard="false"
     fit-margin-top="0"
     fit-margin-left="0"
     fit-margin-right="0"
     fit-margin-bottom="0"
     inkscape:zoom="0.33709572"
     inkscape:cx="623.05502"
     inkscape:cy="134.86543"
     inkscape:window-x="0"
     inkscape:window-y="1"
     inkscape:window-maximized="1"
     inkscape:current-layer="svg8" />
  <defs
     id="defs2" />
  <metadata
     id="metadata5">
    <rdf:RDF>
      <cc:Work
         rdf:about="">
        <dc:format>image/svg+xml</dc:format>
        <dc:type
           rdf:resource="http://purl.org/dc/dcmitype/StillImage" />
        <dc:title></dc:title>
      </cc:Work>
    </rdf:RDF>
  </metadata>
  <g
     transform="translate(-107.6358,-205.42622)"
     id="layer1">
    <path
       id="path4648"
       d="m 136.13555,205.4393 a 28.486677,28.487969 0 0 0 -28.38254,26.40323 h -0.10363 v 2.07452 a 28.486677,28.487969 0 0 0 -5.1e-4,0.0102 28.486677,28.487969 0 0 0 5.1e-4,0.0143 v 27.91012 2.3369 12.62224 c 0,3.04886 2.45436,5.50331 5.50307,5.50331 3.04871,0 5.50306,-2.45445 5.50306,-5.50331 v -14.95914 c 0,-0.17511 -0.009,-0.34831 -0.0245,-0.51914 0.10247,-2.77739 2.51483,-4.98418 5.49796,-4.98418 2.98312,0 5.39547,2.20679 5.49795,4.98418 -0.0158,0.17083 -0.0245,0.34403 -0.0245,0.51914 v 16.75138 c 0,3.04885 2.45435,5.50331 5.50306,5.50331 3.04872,0 5.50306,-2.45446 5.50306,-5.50331 v -16.75138 c 0,-0.13086 -0.006,-0.26046 -0.0153,-0.38898 0.19863,-2.86565 2.57108,-5.11434 5.48877,-5.11434 3.01976,0 5.455,2.4085 5.50102,5.41704 -0.0175,0.19552 -0.0281,0.39297 -0.0281,0.59317 v 16.52116 c 0,3.61946 2.91382,6.53343 6.53314,6.53343 3.61931,0 6.53313,-2.91397 6.53313,-6.53343 v -14.69115 h 0.002 v -32.34605 h -0.0801 a 28.486677,28.487969 0 0 0 -28.40705,-26.40323 z m 12.13368,5.95966 c 0.52238,-0.0206 1.07295,0.22009 1.58034,0.55487 5.80215,3.82845 8.30507,7.18268 9.45949,11.12046 0.27363,0.93336 0.54123,1.8445 -0.1996,2.47473 -0.74081,0.63022 -2.4746,0.77304 -2.4746,-0.1996 0,-3.76797 -5.3886,-10.02948 -9.46001,-11.12045 -0.93945,-0.25173 -0.54072,-1.84451 0.2001,-2.47473 0.2778,-0.23634 0.58087,-0.34294 0.89428,-0.35528 z m -8.36152,10.82745 a 6.4679747,6.4682677 0 0 1 6.4678,6.46809 6.4679747,6.4682677 0 0 1 -6.4678,6.4686 6.4679747,6.4682677 0 0 1 -6.46831,-6.4686 6.4679747,6.4682677 0 0 1 6.46831,-6.46809 z m -17.37132,2.21745 a 5.359179,5.3594219 0 0 1 5.35912,5.35988 5.359179,5.3594219 0 0 1 -5.35912,5.35936 5.359179,5.3594219 0 0 1 -5.35912,-5.35936 5.359179,5.3594219 0 0 1 5.35912,-5.35988 z m 36.54857,3.10312 a 1.6987468,1.6988238 0 0 1 1.69876,1.69881 1.6987468,1.6988238 0 0 1 -1.69876,1.69883 1.6987468,1.6988238 0 0 1 -1.69874,-1.69883 1.6987468,1.6988238 0 0 1 1.69874,-1.69881 z"
       style="opacity:1;fill:#ffffff;fill-opacity:1;stroke:#999999;stroke-width:0.02613516;stroke-linecap:round;stroke-linejoin:round;stroke-miterlimit:4;stroke-dasharray:none"
       inkscape:connector-curvature="0" />
  </g>
  <text
     xml:space="preserve"
     style="font-style:normal;font-weight:normal;font-size:9.52500057px;line-height:1.25;font-family:sans-serif;letter-spacing:0px;word-spacing:0px;fill:#000000;fill-opacity:1;stroke:none;stroke-width:0.23812501"
     x="72.658379"
     y="64.293839"
     id="text869"><tspan
       sodipodi:role="line"
       id="tspan867"
       x="72.658379"
       y="64.293839"
       style="font-style:normal;font-variant:normal;font-weight:500;font-stretch:normal;font-size:61.59500122px;font-family:'Advent Pro';-inkscape-font-specification:'Advent Pro, Medium';font-variant-ligatures:normal;font-variant-caps:normal;font-variant-numeric:normal;font-feature-settings:normal;text-align:start;writing-mode:lr-tb;text-anchor:start;fill:#ffffff;stroke-width:0.23812501"><tspan
         style="font-style:normal;font-variant:normal;font-weight:600;font-stretch:normal;font-size:61.59500122px;font-family:'Advent Pro';-inkscape-font-specification:'Advent Pro, Semi-Bold';font-variant-ligatures:normal;font-variant-caps:normal;font-variant-numeric:normal;font-feature-settings:normal;text-align:start;writing-mode:lr-tb;text-anchor:start"
         id="tspan877">Ghost</tspan><tspan
         style="font-style:normal;font-variant:normal;font-weight:300;font-stretch:normal;font-size:61.59500122px;font-family:'Advent Pro';-inkscape-font-specification:'Advent Pro, Light';font-variant-ligatures:normal;font-variant-caps:normal;font-variant-numeric:normal;font-feature-settings:normal;text-align:start;writing-mode:lr-tb;text-anchor:start"
         id="tspan879">Mail</tspan></tspan></text>
</svg>
